Week 8 - Basic Modeling Practice
…
# Loading in libraries
library(tidyverse)
library(tidymodels)  
library(lubridate)
library(janitor)
library(readr)  

# Read in data
bikes <- readr::read_csv("https://www4.stat.ncsu.edu/~online/datasets/SeoulBikeData.csv", locale = locale(encoding = "latin1"))
bikes

# A tibble: 8,760 × 14
   Date       `Rented Bike Count`  Hour `Temperature(°C)` `Humidity(%)`
   <chr>                    <dbl> <dbl>             <dbl>         <dbl>
 1 01/12/2017                 254     0              -5.2            37
 2 01/12/2017                 204     1              -5.5            38
 3 01/12/2017                 173     2              -6              39
 4 01/12/2017                 107     3              -6.2            40
 5 01/12/2017                  78     4              -6              36
 6 01/12/2017                 100     5              -6.4            37
 7 01/12/2017                 181     6              -6.6            35
 8 01/12/2017                 460     7              -7.4            38
 9 01/12/2017                 930     8              -7.6            37
10 01/12/2017                 490     9              -6.5            27
# ℹ 8,750 more rows
# ℹ 9 more variables: `Wind speed (m/s)` <dbl>, `Visibility (10m)` <dbl>,
#   `Dew point temperature(°C)` <dbl>, `Solar Radiation (MJ/m2)` <dbl>,
#   `Rainfall(mm)` <dbl>, `Snowfall (cm)` <dbl>, Seasons <chr>, Holiday <chr>,
#   `Functioning Day` <chr>
…
  group_by(date, seasons, holiday) %>%
  summarise(bike_count_sum = sum(rented_bike_count),
               rainfall_mm_sum = sum(rainfall_mm),
               snowfall_cm_sum = sum(snowfall_cm),
               temperature_c_mean = mean(temperature_c),
               humidity_percent_mean = mean(humidity_percent),
               wind_speed_mean = mean(wind_speed_m_s),
               visibility_mean = mean(visibility_10m),
               dew_point_temp_c_mean = mean(dew_point_temperature_c),
               solar_radiation_mean = mean(solar_radiation_mj_m2),
               rainfall_mm_mean = mean(rainfall_mm),
               snowfall_cm_mean = mean(snowfall_cm))
daily_rental_summary

# A tibble: 353 × 14
# Groups:   date, seasons [353]
   date       seasons holiday    bike_count_sum rainfall_mm_sum snowfall_cm_sum
   <date>     <fct>   <fct>               <dbl>           <dbl>           <dbl>
 1 2017-12-01 Winter  No Holiday           9539             0               0  
 2 2017-12-02 Winter  No Holiday           8523             0               0  
 3 2017-12-03 Winter  No Holiday           7222             4               0  
 4 2017-12-04 Winter  No Holiday           8729             0.1             0  
 5 2017-12-05 Winter  No Holiday           8307             0               0  
 6 2017-12-06 Winter  No Holiday           6669             1.3             8.6
 7 2017-12-07 Winter  No Holiday           8549             0              10.4
 8 2017-12-08 Winter  No Holiday           8032             0               0  
 9 2017-12-09 Winter  No Holiday           7233             0               0  
10 2017-12-10 Winter  No Holiday           3453             4.1            32.5
# ℹ 343 more rows
# ℹ 8 more variables: temperature_c_mean <dbl>, humidity_percent_mean <dbl>,
#   wind_speed_mean <dbl>, visibility_mean <dbl>, dew_point_temp_c_mean <dbl>,
#   solar_radiation_mean <dbl>, rainfall_mm_mean <dbl>, snowfall_cm_mean <dbl>
…
# Created a filtered data frame to only show numeric variables to create correlation matrix
numeric_daily_rental_summary <- daily_rental_summary %>%
  ungroup() %>%
  select(where(is.numeric)) 
numeric_daily_rental_summary

# A tibble: 353 × 11
   bike_count_sum rainfall_mm_sum snowfall_cm_sum temperature_c_mean
            <dbl>           <dbl>           <dbl>              <dbl>
 1           9539             0               0              -2.45  
 2           8523             0               0               1.32  
 3           7222             4               0               4.88  
 4           8729             0.1             0              -0.304 
 5           8307             0               0              -4.46  
 6           6669             1.3             8.6             0.0458
 7           8549             0              10.4             1.09  
 8           8032             0               0              -3.82  
 9           7233             0               0              -0.846 
10           3453             4.1            32.5             1.19  
# ℹ 343 more rows
# ℹ 7 more variables: humidity_percent_mean <dbl>, wind_speed_mean <dbl>,
#   visibility_mean <dbl>, dew_point_temp_c_mean <dbl>,
#   solar_radiation_mean <dbl>, rainfall_mm_mean <dbl>, snowfall_cm_mean <dbl>
…
